<?xml version="1.0" encoding="utf-8"?>
<!-- Generated by IcoMoon.io -->
<!DOCTYPE svg PUBLIC "-//W3C//DTD SVG 1.1//EN" "http://www.w3.org/Graphics/SVG/1.1/DTD/svg11.dtd">
<svg version="1.1" xmlns="http://www.w3.org/2000/svg" xmlns:xlink="http://www.w3.org/1999/xlink" width="31" height="32" viewBox="0 0 31 32">
<path d="M23.423 17.392c0.142 0.142 0.155 0.375-0.013 0.492-0.414 0.272-0.945 0.233-1.438 0.181-0.829-0.091-1.813-0.129-2.24-0.907-0.013 0-0.013-0.013-0.026-0.026-0.544-0.298 0.375-0.505 0.635-0.544 0.583-0.078 1.204 0.078 1.774 0.207 0.479 0.090 0.932 0.22 1.308 0.596v0 0zM30.986 29.747c-0.388 0.272-0.22 0.738-0.492 1.062-0.272 0.311-0.932 0.311-1.282 0.311-1.489 0.013-2.94-0.103-4.403 0.013-0.375 0.026-0.712 0.078-1.062 0.168-0.104 0.026-0.272 0.091-0.389 0.026-0.298-0.155-0.57-0.647-0.958-0.492-0.324 0.142-0.57 0.609-0.958 0.324-0.712-0.531-1.308-0.052-2.059 0.091-0.777 0.156-1.515-0.272-2.279-0.065-0.57 0.168-1.114 0.337-1.697 0.142-0.583-0.207-0.738-0.66-0.233-1.088 0.803-0.66 1.8-0.764 2.797-0.686 1.515 0.13 3.017 0.013 4.532-0.065 0.052 0 0.078 0.026 0.078 0.065 0.647 0.259 1.062-0.259 1.437-0.712 0.052-0.065 0.143-0.026 0.169 0.013 0.544 0.803 1.204-0.103 1.891-0.026 0.181 0.013 0.35 0.065 0.466 0.233 0.052 0.078 0.065 0.168 0.065 0.259 0.026 0.414 0.557 0.324 0.544-0.091 0-0.065 0.078-0.13 0.142-0.104 0.544 0.22 1.243 0.505 1.683-0.065 0.376-0.479 0.427-1.166 0.466-1.748 0.078-1.567-0.026-3.173-0.142-4.727-0.091-1.515-0.259-3.056-0.078-4.571 0.181-1.502 0.168-2.966 0.143-4.481-0.013-0.79-0.052-1.58 0-2.37 0.026-0.725 0.155-1.502 0.078-2.227-0.078-0.647-0.466-1.204-0.544-1.839-0.078-0.583 0-1.191 0.142-1.761 0.078-0.35 0.259-0.777 0.246-1.14-0.013-0.311-0.026-0.635-0.013-0.945 0-0.155-0.026-0.401 0.091-0.531 0.181-0.22 0.272-0.544-0.155-0.583-1.023-0.129-2.072-0.777-3.043-0.143 0.013 0.22 0.026 0.466-0.026 0.686l0.143 0.181c0.246 0.104 0.492 0.142 0.764 0.155 0.311 0 0.647-0.078 0.958-0.052 0.259 0.026 0.479 0.259 0.389 0.557-0.065 0.22-0.259 0.401-0.375 0.583-0.207 0.324-0.168 0.79-0.168 1.166-0.013 0.945 0 1.891 0.026 2.81 0.026 0.777 0.103 1.567 0.155 2.344 0.013 0.013 0.065 0.026 0.065 0.065 0.026 0.88 0.324 1.748 0.337 2.629 0.013 0.013-0.233 1.088-0.233 1.088-0.013 1.14-0.103 3.25-0.103 3.25-0.013 1.942-0.35 3.872-0.013 5.802 0.142 0.777-0.155 1.528-0.181 2.305-0.026 0.855 0.078 1.697-0.052 2.551 0.013 0.052 0 0.103-0.065 0.13-1.774 0.337-3.574 0.401-5.387 0.298-0.453-0.026-0.984-0.065-1.425 0.104-0.168 0.078-0.401 0.181-0.609 0.168-0.259-0.026-0.389-0.233-0.635-0.272-0.311-0.065-0.609-0.13-0.907-0.155-0.803-0.104-1.567-0.155-2.318 0.168-0.414 0.181-0.855 0.104-1.269-0.065-0.492-0.207-0.868-0.453-1.412-0.181-0.22 0.103-0.414 0.22-0.661 0.272-0.207 0.052-0.388 0-0.57-0.078-0.414-0.155-0.738-0.207-1.178-0.129 0.052 0.065 0.013 0.181-0.078 0.181-2.629-0.143-5.271 0.168-7.9 0.207-0.13 0.026-0.22 0.169-0.298 0.169h-0.078c-0.065 0-0.078-0.22-0.065-0.259-0.35-0.389-0.259-1.671-0.246-2.046 0.104-2.448-0.207-4.908-0.272-7.343-0.026-1.217-0.026-2.448 0.168-3.652 0.233-1.36 0.233-2.681 0.207-4.040-0.065-2.707 0.207-5.4 0.129-8.107 0-0.052 0.052-0.065 0.078-0.052l0.026-0.013c0.725-0.065 1.515-0.259 2.227-0.065 0.013 0 0.026 0.013 0.026 0.026l0.104 0.013h0.803c0.026 0 0.065 0.013 0.065 0.026 1.425 0.013 2.849-0.104 4.273-0.168 0.492-0.013 1.010 0 1.502-0.155 0.246-0.078 0.544-0.207 0.803-0.181 0.648 0.052 1.308 0.246 1.942 0.388 0.453 0.091 0.764-0.686 1.166-0.414 0.609 0.389 1.308 0.246 2.007 0.259 0.375 0.013 0.725-0.065 1.101-0.065 0.207 0 0.376 0.052 0.557 0.091 0.181-0.026 0.337-0.013 0.544 0.065l3.315-0.104c0.66 0.013 1.386 0.065 2.020-0.181 0.168-0.065 0.259-0.155 0.311-0.259-0.026-0.052-0.052-0.104-0.078-0.168-0.052-0.091-0.103-0.207-0.168-0.272-0.712-0.233-1.528-0.168-2.279-0.207-1.023-0.052-2.020 0.091-3.043 0.168-0.946 0.078-1.93 0.143-2.875 0.065-0.557-0.052-1.606-0.298-2.085 0.091-0.052 0.026-0.091 0.026-0.143 0-0.907-0.738-2.098 0.376-3.134 0.065-0.622-0.181-1.204-0.311-1.865-0.233-0.635 0.065-1.256 0.155-1.904 0.155-1.412-0.013-2.81 0.078-4.222 0.026-0.311-0.013-0.609-0.013-0.893-0.052-0.246-0.026-0.57-0.155-0.816-0.052-0.388 0.143-0.466 0.272-0.427 0.388 0.104 0.078-0.259 0.57-0.259 0.816l-0.026 0.647c-0.013 0.958-0.078 1.839-0.298 2.771-0.104 0.492-0.35 1.191-0.168 1.683 0.104 0.324 0.35 0.544 0.492 0.829 0.246 0.531 0.259 1.178 0.233 1.748l-0.155 5.568c-0.065 1.852-0.181 3.717-0.104 5.581 0.065 1.723 0.337 3.483 0.104 5.193-0.078 0.57-0.764 1.58-0.104 1.981 0.376 0.22 0.816 0.272 1.243 0.311 1.049 0.065 2.098-0.052 3.16-0.168 0.388-0.052 0.777-0.129 1.166-0.129 0.298-0.013 0.57 0.026 0.855 0.129 0.246 0.091 0.622 0.259 0.906 0.259 0.013 0.013 0.466-0.013 0.492-0.142 0.389-0.169 0.725-0.298 1.217-0.207 0.479 0.091 0.907 0.155 1.412 0.065 0.259-0.052 0.647-0.078 0.907-0.013l0.104 0.078c0.104-0.052-0.065 0.129-0.168 0.168-0.583 0.233-0.401 0.984-0.466 1.489 0 0.052-0.065 0.065-0.091 0.065-0.233 0-0.557 0-0.686-0.246-0.272-0.505-0.932-0.855-0.932 0.207 0 0.065-0.052 0.091-0.091 0.091-0.052 0-0.091-0.026-0.091-0.091s-0.686-0.427-0.764-0.466c-0.337-0.181-0.725-0.401-1.127-0.259-0.246 0.078-0.453 0.22-0.686 0.324-0.414 0.505-0.855 1.049-1.463 0.725-0.13-0.065-0.635-0.505-0.738-0.414-0.142 0.155-0.298 0.311-0.492 0.389-0.557 0.22-1.14 0.181-1.735 0.168-0.026 0-0.091-0.026-0.091-0.078-0.026-0.233-0.155-0.699-0.479-0.415-0.078 0.065-0.142 0.13-0.22 0.207-0.091 0.078-0.207 0.181-0.324 0.233-0.388 0.156-1.58-0.052-1.735-0.324-0.129-0.207-0.168-0.415-0.22-0.648-0.091-0.57-0.026-1.191-0.052-1.774-0.052-1.464-0.155-2.901-0.272-4.364-0.065-0.738-0.129-1.502-0.065-2.253 0.026-0.479 0.052-1.14 0.298-1.58 0.207-0.35 0.065-0.635-0.207-0.893-0.065-0.078-0.091-0.22-0.091-0.311-0.052-0.544 0.052-1.114 0.078-1.658 0.026-0.401 0.091-0.803 0.091-1.204 0-0.311-0.065-0.609-0.091-0.907-0.013-0.155-0.026-0.311 0.065-0.453 0.181-0.259 0.155-0.401 0.052-0.699-0.207-0.57 0-1.256 0.026-1.852 0.052-0.699 0.078-1.386 0-2.098-0.078-0.777-0.233-1.528-0.181-2.318 0.052-0.712 0.091-1.36 0.129-2.059 0.065-1.27 0.065-2.552 0.026-3.821v0.298c0 0-0.104-1.619 0.57-2.007 1.036-0.57 2.292-0.479 3.419-0.531 1.463-0.065 2.94 0.078 4.403 0.078 0.855 0 1.697-0.013 2.525-0.207 0.583-0.13 1.166-0.181 1.761-0.155 0.725 0.052 1.425 0.233 2.137 0.298s1.411 0.026 2.124-0.013c1.541-0.104 3.095-0.065 4.636 0l2.409 0.104c0.376 0.013 0.803 0.104 1.166 0.013l0.686-0.233c0.505-0.143 0.855-0.013 1.347 0.104l1.813 0.427c0.207-0.052 0.401-0.065 0.557 0.091 0.337 0.311 0.013 0.699 0.259 1.049 0.298 0.414 0.57 0.686 0.635 1.217 0.065 0.57 0.091 1.191-0.091 1.748-0.13 0.376-0.298 0.777-0.143 1.178 0.091 0.246 0.259 0.479 0.324 0.738 0.13 0.557 0.13 1.114 0.091 1.683-0.026 0.648-0.065 1.308-0.142 1.942-0.052 0.414-0.22 0.816-0.233 1.217-0.013 0.337 0.091 0.622 0.155 0.945 0.22 1.062-0.712 1.735-0.881 2.707-0.090 0.531 0.505 0.298 0.777 0.609 0.168 0.207 0.078 0.544 0.065 0.764-0.065 0.57 0.104 1.127 0.078 1.697-0.026 0.712-0.246 1.295-0.078 2.007 0.091 0.401 0.168 0.803 0.078 1.204s-0.557 1.412 0.065 1.593c0.026 0 0.052 0.026 0.052 0.065 0 0.181-0.026 0.311-0.103 0.479-0.272 0.622 0.155 0.492 0.233 0.893 0.078 0.376-0.142 0.505-0.207 0.855-0.091 0.557 0.207 0.984 0.181 1.528-0.013 0.505-0.298 0.79-0.207 1.256 0.026 0 0.065 0.026 0.065 0.065 0.052 0.246 0.078 0.531-0.013 0.777-0.129 0.35-0.272 0.453 0.13 0.66 0.103-0.077 0.103 0.013 0.038 0.052v0 0zM24.213 12.562c-0.246-1.515-0.388-3.095-0.893-4.545-0.22-0.609-0.324-1.269-1.036-1.386-0.932-0.155-0.622 0.622-0.492 1.36 0.181 1.14 0.259 2.305 0.557 3.432 0.207 0.777 0.583 1.697-0.453 1.101-1.735-1.049-2.331-3.341-3.030-5.051-0.311-0.777-1.217-2.629-1.839-3.095-0.298-0.22-1.761-0.544-2.046-0.35-0.609 0.414 1.269 3.328 1.528 3.846 0.57 1.166 1.178 2.318 1.917 3.367 0.531 0.738 1.36 1.425 0.181 1.865-1.217 0.466-1.813-0.22-2.642-0.855-0.66-0.492-1.502-0.57-2.331-0.66-2.279-0.272-4.442-0.013-6.268 1.502-0.88 0.738-1.437 1.748-1.904 2.784-0.13 0.259-0.88 2.551-0.777 2.564-0.466-0.078-0.181-1.166-0.777-0.531-0.531 0.557 0.155 2.163 0.388 2.719 0.531 1.243 1.088 2.461 1.502 3.756s0.505 1.269 1.697 1.373c1.515 0.143 3.004-0.324 4.494-0.505 0 0-2.642-1.644 2.577 0.156 1.166 0.401 2.396 0.298 3.613 0.337 0.868-0.207 0.894-1.697 1.347-2.396 0.168-0.259 1.010-1.58 1.269-1.684 0.376-0.142 0.907 0.246 1.282 0.298 2.176 0.337 2.849-1.45 2.499-3.199-0.298-1.528-0.129-3.237 0.091-4.416 0.090-0.44-0.376-1.386-0.454-1.787v0 0zM14.488 31.158c-0.233-0.22-0.583-0.272-0.816-0.505-0.13-0.143-0.168-0.272-0.143-0.427 0 0-0.013 0-0.013-0.013-0.168-0.311 0.22-0.57 0.492-0.466 0.142 0.065 0.35 0.155 0.376 0.324 0.013 0.22-0.13 0.375-0.168 0.57 0.155 0.091 0.311 0.311 0.388 0.414 0.052 0.091-0.052 0.168-0.116 0.104v0 0z"></path>
</svg>
