<?xml version="1.0" encoding="utf-8"?>
<!-- Generated by IcoMoon.io -->
<!DOCTYPE svg PUBLIC "-//W3C//DTD SVG 1.1//EN" "http://www.w3.org/Graphics/SVG/1.1/DTD/svg11.dtd">
<svg version="1.1" xmlns="http://www.w3.org/2000/svg" xmlns:xlink="http://www.w3.org/1999/xlink" width="33" height="32" viewBox="0 0 33 32">
<path d="M20.25 31.944h-0.001c-2.446 0-4.234-1.43-4.347-3.476-0.071-1.298 0.571-2.679 1.191-4.015 0.716-1.541 1.457-3.134 0.938-4.269-0.393-0.859-1.538-1.563-3.403-2.093-5.631-1.597-7.88-5.843-7.61-9.341 0.323-4.198 3.941-7.332 9.218-7.984 5.739-0.709 10.936 2.042 13.919 7.321 2.953 5.222 3.033 11.635 0.203 16.339-2.832 4.709-6.611 7.52-10.108 7.52v0zM18.036 2.424c-0.519 0-1.051 0.033-1.582 0.099-5.346 0.661-7.467 3.72-7.67 6.362-0.214 2.78 1.66 6.177 6.328 7.502 2.421 0.687 3.902 1.688 4.53 3.059 0.86 1.878-0.097 3.937-0.942 5.754-0.528 1.138-1.076 2.315-1.028 3.171 0.060 1.078 1.095 1.803 2.578 1.803h0.001c1.075 0 4.873-0.481 8.591-6.661 2.506-4.167 2.417-9.88-0.227-14.555-2.347-4.152-6.203-6.533-10.578-6.533v0z"></path>
<path d="M9.6 30.787c-2.556 0-4.794-1.729-5.442-4.204-0.38-1.455-0.172-2.97 0.587-4.268s1.978-2.222 3.433-2.603c0.468-0.122 0.949-0.185 1.429-0.185 2.556 0 4.794 1.729 5.442 4.205 0.381 1.454 0.172 2.97-0.587 4.268-0.759 1.298-1.978 2.222-3.433 2.603-0.468 0.122-0.948 0.185-1.429 0.185v0zM9.607 21.298c-0.329 0-0.659 0.043-0.981 0.127-0.997 0.261-1.833 0.894-2.353 1.784s-0.664 1.928-0.402 2.925c0.444 1.697 1.977 2.882 3.728 2.882 0.329 0 0.658-0.043 0.98-0.127 0.997-0.26 1.833-0.894 2.353-1.784 0.52-0.889 0.663-1.928 0.402-2.925-0.444-1.697-1.977-2.882-3.728-2.882v0z"></path>
<path d="M4.178 19.117v0c-2.062 0-3.767-1.551-3.966-3.607-0.212-2.189 1.397-4.142 3.586-4.354 2.229-0.211 4.144 1.404 4.355 3.586 0.213 2.187-1.396 4.142-3.586 4.357-0.132 0.012-0.261 0.019-0.389 0.019v0zM4.186 12.908c-0.072 0-0.144 0.003-0.217 0.011-1.217 0.117-2.111 1.203-1.994 2.421 0.117 1.216 1.185 2.116 2.421 1.996 1.217-0.119 2.112-1.206 1.994-2.422-0.111-1.142-1.058-2.004-2.204-2.004v0z"></path>
<path d="M23.317 27.674c-0.265 0-0.525-0.117-0.7-0.343-0.299-0.386-0.23-0.942 0.156-1.242 0.083-0.065 5.781-4.628 4.974-12.083-0.052-0.486 0.299-0.923 0.786-0.975 0.484-0.055 0.923 0.299 0.975 0.785 0.917 8.478-5.379 13.464-5.648 13.673-0.161 0.125-0.352 0.185-0.542 0.185z"></path>
<path d="M9.959 28.088c-0.422 0-0.796-0.304-0.871-0.734-0.083-0.479 0.235-0.935 0.713-1.023 0.344-0.069 1.438-0.417 1.198-2.041-0.072-0.484 0.263-0.934 0.746-1.006 0.479-0.071 0.934 0.263 1.005 0.746 0.426 2.869-1.761 3.893-2.639 4.044-0.051 0.009-0.102 0.014-0.152 0.014z"></path>
</svg>
